module github.com/code-ready/crc

go 1.17

require (
	github.com/AlecAivazis/survey/v2 v2.3.4
	github.com/Masterminds/semver/v3 v3.1.1
	github.com/Microsoft/go-winio v0.5.2
	github.com/ProtonMail/go-crypto v0.0.0-20220623141421-5afb4c282135
	github.com/YourFin/binappend v0.0.0-20181105185800-0add4bf0b9ad
	github.com/asaskevich/govalidator v0.0.0-20210307081110-f21760c49a8d
	github.com/cavaliergopher/grab/v3 v3.0.1
	github.com/cheggaaa/pb/v3 v3.0.8
	github.com/code-ready/admin-helper v0.0.10
	github.com/code-ready/clicumber v0.0.0-20210817053019-08963a832984
	github.com/code-ready/machine v0.0.0-20220727160217-7bf0dd8c2d7b
	github.com/code-ready/vfkit v0.0.2
	github.com/containers/gvisor-tap-vsock v0.4.1-0.20220908123107-8d91f6d62de2
	github.com/containers/image/v5 v5.15.0
	github.com/coreos/go-systemd/v22 v22.3.2
	github.com/cucumber/godog v0.9.0
	github.com/cucumber/messages-go/v10 v10.0.3
	github.com/docker/go-units v0.4.0
	github.com/gorilla/handlers v1.5.1
	github.com/h2non/filetype v1.1.3
	github.com/hectane/go-acl v0.0.0-20190604041725-da78bae5fc95
	github.com/jinzhu/copier v0.3.5
	github.com/klauspost/compress v1.15.5
	github.com/klauspost/cpuid/v2 v2.0.12
	github.com/kofalt/go-memoize v0.0.0-20210721235729-46a601ff34b8
	github.com/mattn/go-colorable v0.1.12
	github.com/mdlayher/vsock v1.1.1
	github.com/onsi/ginkgo/v2 v2.1.6
	github.com/onsi/gomega v1.20.2
	github.com/opencontainers/image-spec v1.0.3-0.20220512140940-7b36cea86235
	github.com/openshift/api v0.0.0-20220124143425-d74727069f6f
	github.com/openshift/client-go v0.0.0-20211209144617-7385dd6338e3
	github.com/openshift/oc v0.0.0-alpha.0.0.20220519063019-878f5a8fe0d0
	github.com/pbnjay/memory v0.0.0-20210728143218-7b4eea64cf58
	github.com/pborman/uuid v1.2.1
	github.com/pkg/browser v0.0.0-20210911075715-681adbf594b8
	github.com/pkg/errors v0.9.1
	github.com/segmentio/analytics-go/v3 v3.2.1
	github.com/shirou/gopsutil/v3 v3.22.4
	github.com/sirupsen/logrus v1.9.0
	github.com/spf13/cast v1.5.0
	github.com/spf13/cobra v1.4.0
	github.com/spf13/pflag v1.0.5
	github.com/spf13/viper v1.11.0
	github.com/stretchr/testify v1.8.0
	github.com/xi2/xz v0.0.0-20171230120015-48954b6210f8
	github.com/yusufpapurcu/wmi v1.2.2
	github.com/zalando/go-keyring v0.2.1
	golang.org/x/crypto v0.0.0-20220722155217-630584e8d5aa
	golang.org/x/net v0.0.0-20220722155237-a158d28d115b
	golang.org/x/sync v0.0.0-20220722155255-886fb9371eb4
	golang.org/x/sys v0.0.0-20220722155257-8c9f86f7a55f
	golang.org/x/term v0.0.0-20220526004731-065cf7ba2467
	golang.org/x/text v0.3.7
	k8s.io/api v0.23.2
	k8s.io/apimachinery v0.23.2
	k8s.io/client-go v0.23.2
	libvirt.org/go/libvirtxml v1.8003.0
)

require (
	github.com/Azure/go-ansiterm v0.0.0-20210617225240-d185dfc1b5a1 // indirect
	github.com/BurntSushi/toml v0.3.1 // indirect
	github.com/RangelReale/osincli v0.0.0-20160924135400-fababb0555f2 // indirect
	github.com/VividCortex/ewma v1.2.0 // indirect
	github.com/acarl005/stripansi v0.0.0-20180116102854-5a71ef0e047d // indirect
	github.com/alessio/shellescape v1.4.1 // indirect
	github.com/alexbrainman/sspi v0.0.0-20180613141037-e580b900e9f5 // indirect
	github.com/apcera/gssapi v0.0.0-00010101000000-000000000000 // indirect
	github.com/apparentlymart/go-cidr v1.1.0 // indirect
	github.com/beorn7/perks v1.0.1 // indirect
	github.com/cespare/xxhash/v2 v2.1.2 // indirect
	github.com/containers/libtrust v0.0.0-20190913040956-14b96171aa3b // indirect
	github.com/containers/ocicrypt v1.1.2 // indirect
	github.com/containers/storage v1.33.0 // indirect
	github.com/cucumber/gherkin-go/v11 v11.0.0 // indirect
	github.com/danieljoos/wincred v1.1.2 // indirect
	github.com/davecgh/go-spew v1.1.1 // indirect
	github.com/dimchansky/utfbom v1.1.1 // indirect
	github.com/docker/distribution v2.8.1+incompatible // indirect
	github.com/docker/docker v20.10.3+incompatible // indirect
	github.com/docker/docker-credential-helpers v0.6.4 // indirect
	github.com/docker/go-connections v0.4.0 // indirect
	github.com/docker/go-metrics v0.0.1 // indirect
	github.com/fatih/color v1.13.0 // indirect
	github.com/felixge/httpsnoop v1.0.3 // indirect
	github.com/fsnotify/fsnotify v1.5.1 // indirect
	github.com/ghodss/yaml v1.0.0 // indirect
	github.com/go-logr/logr v1.2.2 // indirect
	github.com/go-ole/go-ole v1.2.6 // indirect
	github.com/godbus/dbus/v5 v5.1.0 // indirect
	github.com/gofrs/uuid v4.2.0+incompatible // indirect
	github.com/gogo/protobuf v1.3.2 // indirect
	github.com/golang/protobuf v1.5.2 // indirect
	github.com/goodhosts/hostsfile v0.1.1 // indirect
	github.com/google/btree v1.0.1 // indirect
	github.com/google/go-cmp v0.5.8 // indirect
	github.com/google/gofuzz v1.2.0 // indirect
	github.com/google/gopacket v1.1.19 // indirect
	github.com/google/uuid v1.3.0 // indirect
	github.com/googleapis/gnostic v0.5.5 // indirect
	github.com/gorilla/mux v1.8.0 // indirect
	github.com/hashicorp/errwrap v1.0.0 // indirect
	github.com/hashicorp/go-multierror v1.1.1 // indirect
	github.com/hashicorp/hcl v1.0.0 // indirect
	github.com/imdario/mergo v0.3.12 // indirect
	github.com/inconshreveable/mousetrap v1.0.0 // indirect
	github.com/insomniacslk/dhcp v0.0.0-20220504074936-1ca156eafb9f // indirect
	github.com/json-iterator/go v1.1.12 // indirect
	github.com/kballard/go-shellquote v0.0.0-20180428030007-95032a82bc51 // indirect
	github.com/klauspost/pgzip v1.2.5 // indirect
	github.com/linuxkit/virtsock v0.0.0-20220523201153-1a23e78aa7a2 // indirect
	github.com/lufia/plan9stats v0.0.0-20211012122336-39d0f177ccd0 // indirect
	github.com/magiconair/properties v1.8.6 // indirect
	github.com/mattn/go-isatty v0.0.14 // indirect
	github.com/mattn/go-runewidth v0.0.13 // indirect
	github.com/matttproud/golang_protobuf_extensions v1.0.2-0.20181231171920-c182affec369 // indirect
	github.com/mdlayher/socket v0.2.3 // indirect
	github.com/mgutz/ansi v0.0.0-20200706080929-d51e80ef957d // indirect
	github.com/miekg/dns v1.1.50 // indirect
	github.com/miekg/pkcs11 v1.0.3 // indirect
	github.com/mitchellh/go-wordwrap v1.0.0 // indirect
	github.com/mitchellh/mapstructure v1.4.3 // indirect
	github.com/moby/spdystream v0.2.0 // indirect
	github.com/moby/sys/mountinfo v0.6.2 // indirect
	github.com/moby/term v0.0.0-20210610120745-9d4ed1856297 // indirect
	github.com/modern-go/concurrent v0.0.0-20180306012644-bacd9c7ef1dd // indirect
	github.com/modern-go/reflect2 v1.0.2 // indirect
	github.com/mtrmac/gpgme v0.1.2 // indirect
	github.com/opencontainers/go-digest v1.0.0 // indirect
	github.com/opencontainers/runc v1.1.3 // indirect
	github.com/opencontainers/runtime-spec v1.0.3-0.20220706171101-8d0d6d41d096 // indirect
	github.com/openshift/library-go v0.0.0-20220211142501-9f57c596fd46 // indirect
	github.com/patrickmn/go-cache v2.1.0+incompatible // indirect
	github.com/pelletier/go-toml v1.9.4 // indirect
	github.com/pelletier/go-toml/v2 v2.0.0-beta.8 // indirect
	github.com/pmezard/go-difflib v1.0.0 // indirect
	github.com/power-devops/perfstat v0.0.0-20210106213030-5aafc221ea8c // indirect
	github.com/prometheus/client_golang v1.11.0 // indirect
	github.com/prometheus/client_model v0.2.0 // indirect
	github.com/prometheus/common v0.28.0 // indirect
	github.com/prometheus/procfs v0.6.0 // indirect
	github.com/rivo/uniseg v0.2.0 // indirect
	github.com/rogpeppe/go-internal v1.8.0 // indirect
	github.com/segmentio/backo-go v1.0.0 // indirect
	github.com/spf13/afero v1.8.2 // indirect
	github.com/spf13/jwalterweatherman v1.1.0 // indirect
	github.com/stefanberger/go-pkcs11uri v0.0.0-20201008174630-78d3cae3a980 // indirect
	github.com/subosito/gotenv v1.2.0 // indirect
	github.com/syndtr/gocapability v0.0.0-20200815063812-42c35b437635 // indirect
	github.com/tklauser/go-sysconf v0.3.10 // indirect
	github.com/tklauser/numcpus v0.4.0 // indirect
	github.com/u-root/uio v0.0.0-20210528114334-82958018845c // indirect
	github.com/ulikunitz/xz v0.5.10 // indirect
	github.com/vbatts/tar-split v0.11.1 // indirect
	github.com/vbauerster/mpb/v7 v7.0.3 // indirect
	go.etcd.io/bbolt v1.3.6 // indirect
	go.mozilla.org/pkcs7 v0.0.0-20200128120323-432b2356ecb1 // indirect
	golang.org/x/mod v0.6.0-dev.0.20220419223038-86c51ed26bb4 // indirect
	golang.org/x/oauth2 v0.0.0-20220411215720-9780585627b5 // indirect
	golang.org/x/time v0.0.0-20210723032227-1f47c861a9ac // indirect
	golang.org/x/tools v0.1.12 // indirect
	google.golang.org/appengine v1.6.7 // indirect
	google.golang.org/genproto v0.0.0-20220407144326-9054f6ed7bac // indirect
	google.golang.org/grpc v1.45.0 // indirect
	google.golang.org/protobuf v1.28.0 // indirect
	gopkg.in/check.v1 v1.0.0-20201130134442-10cb98267c6c // indirect
	gopkg.in/inf.v0 v0.9.1 // indirect
	gopkg.in/ini.v1 v1.66.4 // indirect
	gopkg.in/square/go-jose.v2 v2.5.1 // indirect
	gopkg.in/yaml.v2 v2.4.0 // indirect
	gopkg.in/yaml.v3 v3.0.1 // indirect
	gvisor.dev/gvisor v0.0.0-20220908032458-edc830a43ba6 // indirect
	inet.af/tcpproxy v0.0.0-20220326234310-be3ee21c9fa0 // indirect
	k8s.io/klog/v2 v2.40.1 // indirect
	k8s.io/kubectl v0.23.2 // indirect
	k8s.io/utils v0.0.0-20211208161948-7d6a63dca704 // indirect
	sigs.k8s.io/json v0.0.0-20211208200746-9f7c6b3444d2 // indirect
	sigs.k8s.io/structured-merge-diff/v4 v4.2.1 // indirect
	sigs.k8s.io/yaml v1.2.0 // indirect
)

replace (
	github.com/apcera/gssapi => github.com/openshift/gssapi v0.0.0-20161010215902-5fb4217df13b

	k8s.io/kubectl => github.com/openshift/kubernetes-kubectl v0.0.0-20220124124213-df787b5b471c
)
